<?xml version="1.0" encoding="UTF-8"?>
<session version="1.0">
<refactoring comment="Rename resource &apos;GestionVehicule&apos; to &apos;GestionVehicule_00&apos;" description="Rename resource &apos;GestionVehicule&apos;" flags="7" id="org.eclipse.ltk.core.refactoring.rename.resource" input="/GestionVehicule" name="GestionVehicule_00" stamp="1579011594665" updateReferences="true"/>
</session>